Experiment name,Replicate,Reference sequence,Ligand,Sample,Probe
Aptamer21-Cpd2d,1,ARR-11,Cpd2d,Apt21-DMSO-Cpd2d-None-1,probe
Aptamer21-Cpd2d,2,ARR-11,Cpd2d,Apt21-DMSO-Cpd2d-None-2,probe
Aptamer21-Cpd2d,3,ARR-11,Cpd2d,Apt21-DMSO-Cpd2d-None-3,probe
Aptamer21-Cpd2d,1,ARR-11,Cpd2d,Apt21-DMSO-DMSO-None-1,control
Aptamer21-Cpd2d,2,ARR-11,Cpd2d,Apt21-DMSO-DMSO-None-2,control
Aptamer21-Cpd2d,3,ARR-11,Cpd2d,Apt21-DMSO-DMSO-None-3,control
